…
# View the table
print(tif_table)
```

    ## # A tibble: 41 × 5
    ##    Base_Year Count Frozen_Base_Valuation_Millions Incremental_Valuation_Millions
    ##    <chr>     <dbl>                          <dbl>                          <dbl>
    ##  1 1981          1                            1.8                            3.6
    ##  2 1982          3                          123                            311. 
    ##  3 1983          4                           42.4                           81  
    ##  4 1984          3                           20.2                           20.5
    ##  5 1985         10                           57.3                           81.3
    ##  6 1986         11                           40.9                          166. 
    ##  7 1987         22                          259.                           408. 
    ##  8 1988         37                          447.                           913. 
    ##  9 1989         40                          271.                           684. 
    ## 10 1990         40                          328.                           389. 
    ## # ℹ 31 more rows
    ## # ℹ 1 more variable: TIF_Estimated_Revenues_Millions <dbl>
…
